{
    "identityPoolName": "breakableAppUsers",
    "allowUnauthenticatedIdentities": false,
    "resourceNameTruncated": "breakac7cc3d48",
    "userPoolName": "breakableAppUsers",
    "autoVerifiedAttributes": [
        "email"
    ],
    "mfaConfiguration": "OPTIONAL",
    "mfaTypes": [
        "SMS Text Message"
    ],
    "smsAuthenticationMessage": "Your authentication code is {####}",
    "smsVerificationMessage": "Your verification code is {####}",
    "emailVerificationSubject": "Your verification code",
    "emailVerificationMessage": "Your verification code is {####}",
    "defaultPasswordPolicy": true,
    "passwordPolicyMinLength": 8,
    "passwordPolicyCharacters": [],
    "requiredAttributes": [
        "email"
    ],
    "userpoolClientGenerateSecret": true,
    "userpoolClientRefreshTokenValidity": 30,
    "userpoolClientWriteAttributes": [
        "email"
    ],
    "userpoolClientReadAttributes": [
        "email"
    ],
    "userpoolClientLambdaRole": "breakac7cc3d48_userpoolclient_lambda_role",
    "userpoolClientSetAttributes": false,
    "useDefault": "manual",
    "authSelections": "identityPoolAndUserPool",
    "resourceName": "breakableAppAuth",
    "thirdPartyAuth": false,
    "usernameAttributes": [
        "email"
    ],
    "triggers": "{\"CustomMessage\":[\"verification-link\"],\"PostConfirmation\":[\"add-to-group\"]}",
    "hostedUI": true,
    "hostedUIDomainName": "breakable-auth",
    "authProvidersUserPool": [],
    "hostedUIProviderMeta": "[]",
    "oAuthMetadata": "{\"AllowedOAuthFlows\":[\"code\"],\"AllowedOAuthScopes\":[\"phone\",\"email\",\"openid\",\"profile\",\"aws.cognito.signin.user.admin\"],\"CallbackURLs\":[\"https://breakable-auth.elmntinc.com/\"],\"LogoutURLs\":[\"https://breakable-auth.elmntinc.com/\"]}",
    "verificationBucketName": "breakableappauthverificationbucket",
    "authRoleArn": {
        "Fn::GetAtt": [
            "AuthRole",
            "Arn"
        ]
    },
    "unauthRoleArn": {
        "Fn::GetAtt": [
            "UnauthRole",
            "Arn"
        ]
    },
    "parentStack": {
        "Ref": "AWS::StackId"
    },
    "permissions": [
        "{\"policyName\":\"AddToGroupCognito\",\"trigger\":\"PostConfirmation\",\"effect\":\"Allow\",\"actions\":[\"cognito-idp:AdminAddUserToGroup\",\"cognito-idp:GetGroup\",\"cognito-idp:CreateGroup\"],\"resource\":{\"paramType\":\"!GetAtt\",\"keys\":[\"UserPool\",\"Arn\"]}}"
    ],
    "dependsOn": [
        {
            "category": "function",
            "resourceName": "breakableAppAuthCustomMessage",
            "triggerProvider": "Cognito",
            "attributes": [
                "Arn",
                "Name"
            ]
        },
        {
            "category": "function",
            "resourceName": "breakableAppAuthPostConfirmation",
            "triggerProvider": "Cognito",
            "attributes": [
                "Arn",
                "Name"
            ]
        }
    ]
}